(footprint Broadcom_DFN-6_2x2mm_P0.65mm (version 20221018) (generator kicad-footprint-generator)
  (layer F.Cu)
  (descr "Broadcom  DFN, 6 Pin (https://docs.broadcom.com/docs/AV02-4755EN), generated with kicad-footprint-generator ipc_noLead_generator.py")
  (tags "Broadcom DFN NoLead")
  (attr smd)
  (fp_text reference REF** (at 0 -1.95) (layer F.SilkS)
    (effects (font (size 1 1) (thickness 0.15)))
  )
  (fp_text value Broadcom_DFN-6_2x2mm_P0.65mm (at 0 1.95) (layer F.Fab)
    (effects (font (size 1 1) (thickness 0.15)))
  )
  (fp_line (start -1 -1.11) (end 1 -1.11)
    (stroke (width 0.12) (type solid)) (layer F.SilkS))
  (fp_line (start -1 1.11) (end 1 1.11)
    (stroke (width 0.12) (type solid)) (layer F.SilkS))
  (fp_line (start -0.5 -1) (end 1 -1)
    (stroke (width 0.1) (type solid)) (layer F.Fab))
  (fp_line (start 1 -1) (end 1 1)
    (stroke (width 0.1) (type solid)) (layer F.Fab))
  (fp_line (start 1 1) (end -1 1)
    (stroke (width 0.1) (type solid)) (layer F.Fab))
  (fp_line (start -1 1) (end -1 -0.5)
    (stroke (width 0.1) (type solid)) (layer F.Fab))
  (fp_line (start -1 -0.5) (end -0.5 -1)
    (stroke (width 0.1) (type solid)) (layer F.Fab))
  (fp_line (start -1.63 -1.25) (end -1.63 1.25)
    (stroke (width 0.05) (type solid)) (layer F.CrtYd))
  (fp_line (start -1.63 1.25) (end 1.63 1.25)
    (stroke (width 0.05) (type solid)) (layer F.CrtYd))
  (fp_line (start 1.63 1.25) (end 1.63 -1.25)
    (stroke (width 0.05) (type solid)) (layer F.CrtYd))
  (fp_line (start 1.63 -1.25) (end -1.63 -1.25)
    (stroke (width 0.05) (type solid)) (layer F.CrtYd))
  (pad 1 smd roundrect (at -0.7875 -0.65) (size 1.175 0.3) (layers F.Cu F.Mask F.Paste) (roundrect_rratio 0.25))
  (pad 2 smd roundrect (at -0.7875 0) (size 1.175 0.3) (layers F.Cu F.Mask F.Paste) (roundrect_rratio 0.25))
  (pad 3 smd roundrect (at -0.7875 0.65) (size 1.175 0.3) (layers F.Cu F.Mask F.Paste) (roundrect_rratio 0.25))
  (pad 4 smd roundrect (at 0.7875 0.65) (size 1.175 0.3) (layers F.Cu F.Mask F.Paste) (roundrect_rratio 0.25))
  (pad 5 smd roundrect (at 0.7875 0) (size 1.175 0.3) (layers F.Cu F.Mask F.Paste) (roundrect_rratio 0.25))
  (pad 6 smd roundrect (at 0.7875 -0.65) (size 1.175 0.3) (layers F.Cu F.Mask F.Paste) (roundrect_rratio 0.25))
  (fp_poly (pts (xy -1.54 -0.97) (xy -1.9 -0.97) (xy -1.54 -1.33) (xy -1.54 -0.97))
    (stroke (width 0.12) (type solid)) (fill solid) (layer F.SilkS))
  (fp_text user ${REFERENCE} (at 0 0) (layer F.Fab)
    (effects (font (size 0.5 0.5) (thickness 0.08)))
  )
  (model ${KICAD7_3DMODEL_DIR}/OptoDevice.3dshapes/Broadcom_DFN-6_2x2mm_P0.65mm.wrl
    (offset (xyz 0 0 0))
    (scale (xyz 1 1 1))
    (rotate (xyz 0 0 0))
  )
)
