(footprint "LFPAK88" (version 20221018) (generator pcbnew)
  (layer "F.Cu")
  (descr "LFPAK88 PowerPAK 8 x 8L BWL Single SOT-1235 (https://assets.nexperia.com/documents/package-information/SOT1235.pdf)")
  (tags "PowerPAK 8x8L Nexperia Vishay")
  (attr smd)
  (fp_text reference "REF**" (at 0 -5.25) (layer "F.SilkS")
      (effects (font (size 1 1) (thickness 0.15)))
    (tstamp 15fdfab1-9e29-487a-8794-3c97e109edd2)
  )
  (fp_text value "LFPAK88" (at 0 5.25) (layer "F.Fab")
      (effects (font (size 1 1) (thickness 0.15)))
    (tstamp cbedd442-8420-474b-825c-578dd3f58d53)
  )
  (fp_text user "${REFERENCE}" (at 0 0) (layer "F.Fab")
      (effects (font (size 1 1) (thickness 0.15)))
    (tstamp ff28473f-4884-4641-8108-456d085a16d9)
  )
  (fp_line (start -3.36 -4.26) (end -3.36 -3.86)
    (stroke (width 0.12) (type default)) (layer "F.SilkS") (tstamp e60f359c-aa3f-4882-9e0a-1a2f83769950))
  (fp_line (start -3.36 -4.26) (end 2.26 -4.26)
    (stroke (width 0.12) (type solid)) (layer "F.SilkS") (tstamp 1f04b249-f984-4984-b138-66a3b3d26f45))
  (fp_line (start -3.36 -3.86) (end -4.52 -3.86)
    (stroke (width 0.12) (type default)) (layer "F.SilkS") (tstamp 079c22e3-16ac-43b5-a539-ec568692a5f2))
  (fp_line (start -3.36 3.86) (end -3.6 3.86)
    (stroke (width 0.12) (type default)) (layer "F.SilkS") (tstamp 7cae58d3-5b40-443a-9ea0-348b1685b173))
  (fp_line (start -3.36 3.86) (end -3.36 4.26)
    (stroke (width 0.12) (type default)) (layer "F.SilkS") (tstamp 115b5329-f386-47ef-b375-8418a796fe30))
  (fp_line (start -3.36 4.26) (end 2 4.26)
    (stroke (width 0.12) (type solid)) (layer "F.SilkS") (tstamp d75b214d-6449-4c40-8bbd-c9fb43530fc2))
  (fp_rect (start -4.77 -4.55) (end 4.53 4.55)
    (stroke (width 0.05) (type default)) (fill none) (layer "F.CrtYd") (tstamp cfe4d187-b03b-437c-9e33-f82cfab87cc1))
  (fp_line (start -4.2 -3.5) (end -4.2 -2.5)
    (stroke (width 0.1) (type default)) (layer "F.Fab") (tstamp 2287215c-bbf0-462c-ab3c-8394aaa3d3b7))
  (fp_line (start -4.2 -3.5) (end -2.6 -3.5)
    (stroke (width 0.1) (type default)) (layer "F.Fab") (tstamp 1439a33a-c712-421d-b46e-7516a543a719))
  (fp_line (start -4.2 -2.5) (end -3.1 -2.5)
    (stroke (width 0.1) (type default)) (layer "F.Fab") (tstamp 2f7ce426-bae6-4b81-81e8-b7d89011c07f))
  (fp_rect (start -4.2 -1.5) (end -3.1 -0.5)
    (stroke (width 0.1) (type default)) (fill none) (layer "F.Fab") (tstamp 5f2ee4f4-6fee-48fa-8bcb-0ce20802dd45))
  (fp_rect (start -4.2 0.5) (end -3.1 1.5)
    (stroke (width 0.1) (type default)) (fill none) (layer "F.Fab") (tstamp a5359e8c-1bac-4294-9133-660967a11d83))
  (fp_rect (start -4.2 2.5) (end -3.1 3.5)
    (stroke (width 0.1) (type default)) (fill none) (layer "F.Fab") (tstamp 573d41e9-ff77-41d8-b7b0-0b8f5305d5cb))
  (fp_rect (start 3.1 -4) (end 3.8 4)
    (stroke (width 0.1) (type default)) (fill none) (layer "F.Fab") (tstamp f1b10f19-8a61-42e0-8736-d03faa30e4bf))
  (fp_poly
    (pts
      (xy -3.1 -3)
      (xy -2.1 -4)
      (xy 3.1 -4)
      (xy 3.1 4)
      (xy -3.1 4)
    )

    (stroke (width 0.1) (type solid)) (fill none) (layer "F.Fab") (tstamp d7c9ae04-3345-4b30-9ae9-09a58f1b1d24))
  (pad "1" smd roundrect (at -3.82 -3) (size 1.4 1.2) (layers "F.Cu" "F.Paste" "F.Mask") (roundrect_rratio 0.25) (tstamp 6f21ddf4-1439-4e6e-a913-3b577c51ba82))
  (pad "2" smd roundrect (at -3.82 -1) (size 1.4 1.2) (layers "F.Cu" "F.Paste" "F.Mask") (roundrect_rratio 0.25) (tstamp 453f1464-0307-4357-bbf0-db61a648803e))
  (pad "3" smd roundrect (at -3.82 1) (size 1.4 1.2) (layers "F.Cu" "F.Paste" "F.Mask") (roundrect_rratio 0.25) (tstamp bfc82aed-cc72-4ecc-907e-b139c1438702))
  (pad "4" smd roundrect (at -3.82 3) (size 1.4 1.2) (layers "F.Cu" "F.Paste" "F.Mask") (roundrect_rratio 0.25) (tstamp a0b5a6df-16f6-4bba-916a-27b7204b9086))
  (pad "5" smd roundrect (at -0.55 -2.25) (size 1.15 2.05) (layers "F.Cu" "F.Paste") (roundrect_rratio 0.25) (tstamp 28bc2e84-0f48-451f-9fb1-b86318b66ff6))
  (pad "5" smd roundrect (at -0.55 0) (size 1.15 2.05) (layers "F.Cu" "F.Paste") (roundrect_rratio 0.25) (tstamp 4aa2cba6-f41b-431c-9433-03afd31271dc))
  (pad "5" smd roundrect (at -0.55 2.25) (size 1.15 2.05) (layers "F.Cu" "F.Paste") (roundrect_rratio 0.25) (tstamp ebd2db1b-3d12-49a6-91dd-f83a455ec682))
  (pad "5" smd custom (at 0.65 0) (size 3.74 6.8) (layers "F.Cu" "F.Mask")
    (options (clearance outline) (anchor rect))
    (primitives
      (gr_poly
        (pts
          (xy 1.87 3.4)
          (xy 1.87 4.3)
          (xy 3.63 4.3)
          (xy 3.63 -4.3)
          (xy 1.87 -4.3)
          (xy 1.87 -3.4)
        )
        (width 0) (fill yes))
    ) (tstamp 9dc1e582-6c9a-4d38-8a54-9de53311618a))
  (pad "5" smd roundrect (at 0.8 -2.25) (size 1.15 2.05) (layers "F.Cu" "F.Paste") (roundrect_rratio 0.25) (tstamp 959466c1-9ad0-4b48-a5da-649b430e7e1a))
  (pad "5" smd roundrect (at 0.8 0) (size 1.15 2.05) (layers "F.Cu" "F.Paste") (roundrect_rratio 0.25) (tstamp b3b198f9-ca2c-495f-9532-264754432f0b))
  (pad "5" smd roundrect (at 0.8 2.25) (size 1.15 2.05) (layers "F.Cu" "F.Paste") (roundrect_rratio 0.25) (tstamp ce87a312-8b92-45c5-baa5-37b8aa998eb0))
  (pad "5" smd roundrect (at 2.15 -2.25) (size 1.15 2.05) (layers "F.Cu" "F.Paste") (roundrect_rratio 0.25) (tstamp 5d9b5325-f950-4b06-b1fc-17fc2f014dbc))
  (pad "5" smd roundrect (at 2.15 0) (size 1.15 2.05) (layers "F.Cu" "F.Paste") (roundrect_rratio 0.25) (tstamp 9f6ee1fd-ad03-4a02-934e-51991bf4527f))
  (pad "5" smd roundrect (at 2.15 2.25) (size 1.15 2.05) (layers "F.Cu" "F.Paste") (roundrect_rratio 0.25) (tstamp 4c154480-04b8-4b8b-a9c9-365d9ed6baf8))
  (pad "5" smd roundrect (at 3.55 -3.55) (size 1.25 1.2) (layers "F.Cu" "F.Paste") (roundrect_rratio 0.25) (tstamp 50d51501-330b-4bf5-804a-c3c0957a7656))
  (pad "5" smd roundrect (at 3.55 0) (size 1.25 0.7) (layers "F.Cu" "F.Paste") (roundrect_rratio 0.25) (tstamp 1de7f82e-66f0-4adb-9f7a-795b9cdf309e))
  (pad "5" smd roundrect (at 3.55 3.55) (size 1.25 1.2) (layers "F.Cu" "F.Paste") (roundrect_rratio 0.25) (tstamp bef44c06-8b9f-4609-9994-a1e487875aa8))
  (pad "5" smd roundrect (at 3.825 -1.7) (size 0.7 2.1) (layers "F.Cu" "F.Paste") (roundrect_rratio 0.25) (tstamp 8634ec78-ee6d-4f3e-82e9-74aff22f7c93))
  (pad "5" smd roundrect (at 3.825 1.7) (size 0.7 2.1) (layers "F.Cu" "F.Paste") (roundrect_rratio 0.25) (tstamp 7cc92ec2-5e6c-4144-b938-378bdf4e34e8))
  (model "${KICAD7_3DMODEL_DIR}/Package_TO_SOT_SMD.3dshapes/LFPAK88.wrl"
    (offset (xyz 0 0 0))
    (scale (xyz 1 1 1))
    (rotate (xyz 0 0 0))
  )
)
