(footprint HTSSOP-44_6.1x14mm_P0.635mm_TopEP4.14x7.01mm (version 20221018) (generator kicad-footprint-generator)
  (layer F.Cu)
  (descr "HTSSOP, 44 Pin (http://www.ti.com/lit/ds/symlink/tpa3251.pdf#page=38), generated with kicad-footprint-generator ipc_gullwing_generator.py")
  (tags "HTSSOP SO")
  (attr smd)
  (fp_text reference REF** (at 0 -7.95) (layer F.SilkS)
    (effects (font (size 1 1) (thickness 0.15)))
  )
  (fp_text value HTSSOP-44_6.1x14mm_P0.635mm_TopEP4.14x7.01mm (at 0 7.95) (layer F.Fab)
    (effects (font (size 1 1) (thickness 0.15)))
  )
  (fp_line (start -4.75 -7.25) (end -4.75 7.25)
    (stroke (width 0.05) (type solid)) (layer F.CrtYd))
  (fp_line (start -4.75 7.25) (end 4.75 7.25)
    (stroke (width 0.05) (type solid)) (layer F.CrtYd))
  (fp_line (start 4.75 7.25) (end 4.75 -7.25)
    (stroke (width 0.05) (type solid)) (layer F.CrtYd))
  (fp_line (start 4.75 -7.25) (end -4.75 -7.25)
    (stroke (width 0.05) (type solid)) (layer F.CrtYd))
  (fp_line (start 0 7.1275) (end 3.05 7.1275)
    (stroke (width 0.12) (type solid)) (layer F.SilkS))
  (fp_line (start 0 7.1275) (end -3.05 7.1275)
    (stroke (width 0.12) (type solid)) (layer F.SilkS))
  (fp_line (start 0 -7.1275) (end 3.05 -7.1275)
    (stroke (width 0.12) (type solid)) (layer F.SilkS))
  (fp_line (start 0 -7.1275) (end -3.05 -7.1275)
    (stroke (width 0.12) (type solid)) (layer F.SilkS))
  (fp_line (start -2.05 -7) (end 3.05 -7)
    (stroke (width 0.1) (type solid)) (layer F.Fab))
  (fp_line (start 3.05 -7) (end 3.05 7)
    (stroke (width 0.1) (type solid)) (layer F.Fab))
  (fp_line (start 3.05 7) (end -3.05 7)
    (stroke (width 0.1) (type solid)) (layer F.Fab))
  (fp_line (start -3.05 7) (end -3.05 -6)
    (stroke (width 0.1) (type solid)) (layer F.Fab))
  (fp_line (start -3.05 -6) (end -2.05 -7)
    (stroke (width 0.1) (type solid)) (layer F.Fab))
  (pad 1 smd roundrect (at -3.7125 -6.6675) (size 1.575 0.4) (layers F.Cu F.Mask F.Paste) (roundrect_rratio 0.25))
  (pad 2 smd roundrect (at -3.7125 -6.0325) (size 1.575 0.4) (layers F.Cu F.Mask F.Paste) (roundrect_rratio 0.25))
  (pad 3 smd roundrect (at -3.7125 -5.3975) (size 1.575 0.4) (layers F.Cu F.Mask F.Paste) (roundrect_rratio 0.25))
  (pad 4 smd roundrect (at -3.7125 -4.7625) (size 1.575 0.4) (layers F.Cu F.Mask F.Paste) (roundrect_rratio 0.25))
  (pad 5 smd roundrect (at -3.7125 -4.1275) (size 1.575 0.4) (layers F.Cu F.Mask F.Paste) (roundrect_rratio 0.25))
  (pad 6 smd roundrect (at -3.7125 -3.4925) (size 1.575 0.4) (layers F.Cu F.Mask F.Paste) (roundrect_rratio 0.25))
  (pad 7 smd roundrect (at -3.7125 -2.8575) (size 1.575 0.4) (layers F.Cu F.Mask F.Paste) (roundrect_rratio 0.25))
  (pad 8 smd roundrect (at -3.7125 -2.2225) (size 1.575 0.4) (layers F.Cu F.Mask F.Paste) (roundrect_rratio 0.25))
  (pad 9 smd roundrect (at -3.7125 -1.5875) (size 1.575 0.4) (layers F.Cu F.Mask F.Paste) (roundrect_rratio 0.25))
  (pad 10 smd roundrect (at -3.7125 -0.9525) (size 1.575 0.4) (layers F.Cu F.Mask F.Paste) (roundrect_rratio 0.25))
  (pad 11 smd roundrect (at -3.7125 -0.3175) (size 1.575 0.4) (layers F.Cu F.Mask F.Paste) (roundrect_rratio 0.25))
  (pad 12 smd roundrect (at -3.7125 0.3175) (size 1.575 0.4) (layers F.Cu F.Mask F.Paste) (roundrect_rratio 0.25))
  (pad 13 smd roundrect (at -3.7125 0.9525) (size 1.575 0.4) (layers F.Cu F.Mask F.Paste) (roundrect_rratio 0.25))
  (pad 14 smd roundrect (at -3.7125 1.5875) (size 1.575 0.4) (layers F.Cu F.Mask F.Paste) (roundrect_rratio 0.25))
  (pad 15 smd roundrect (at -3.7125 2.2225) (size 1.575 0.4) (layers F.Cu F.Mask F.Paste) (roundrect_rratio 0.25))
  (pad 16 smd roundrect (at -3.7125 2.8575) (size 1.575 0.4) (layers F.Cu F.Mask F.Paste) (roundrect_rratio 0.25))
  (pad 17 smd roundrect (at -3.7125 3.4925) (size 1.575 0.4) (layers F.Cu F.Mask F.Paste) (roundrect_rratio 0.25))
  (pad 18 smd roundrect (at -3.7125 4.1275) (size 1.575 0.4) (layers F.Cu F.Mask F.Paste) (roundrect_rratio 0.25))
  (pad 19 smd roundrect (at -3.7125 4.7625) (size 1.575 0.4) (layers F.Cu F.Mask F.Paste) (roundrect_rratio 0.25))
  (pad 20 smd roundrect (at -3.7125 5.3975) (size 1.575 0.4) (layers F.Cu F.Mask F.Paste) (roundrect_rratio 0.25))
  (pad 21 smd roundrect (at -3.7125 6.0325) (size 1.575 0.4) (layers F.Cu F.Mask F.Paste) (roundrect_rratio 0.25))
  (pad 22 smd roundrect (at -3.7125 6.6675) (size 1.575 0.4) (layers F.Cu F.Mask F.Paste) (roundrect_rratio 0.25))
  (pad 23 smd roundrect (at 3.7125 6.6675) (size 1.575 0.4) (layers F.Cu F.Mask F.Paste) (roundrect_rratio 0.25))
  (pad 24 smd roundrect (at 3.7125 6.0325) (size 1.575 0.4) (layers F.Cu F.Mask F.Paste) (roundrect_rratio 0.25))
  (pad 25 smd roundrect (at 3.7125 5.3975) (size 1.575 0.4) (layers F.Cu F.Mask F.Paste) (roundrect_rratio 0.25))
  (pad 26 smd roundrect (at 3.7125 4.7625) (size 1.575 0.4) (layers F.Cu F.Mask F.Paste) (roundrect_rratio 0.25))
  (pad 27 smd roundrect (at 3.7125 4.1275) (size 1.575 0.4) (layers F.Cu F.Mask F.Paste) (roundrect_rratio 0.25))
  (pad 28 smd roundrect (at 3.7125 3.4925) (size 1.575 0.4) (layers F.Cu F.Mask F.Paste) (roundrect_rratio 0.25))
  (pad 29 smd roundrect (at 3.7125 2.8575) (size 1.575 0.4) (layers F.Cu F.Mask F.Paste) (roundrect_rratio 0.25))
  (pad 30 smd roundrect (at 3.7125 2.2225) (size 1.575 0.4) (layers F.Cu F.Mask F.Paste) (roundrect_rratio 0.25))
  (pad 31 smd roundrect (at 3.7125 1.5875) (size 1.575 0.4) (layers F.Cu F.Mask F.Paste) (roundrect_rratio 0.25))
  (pad 32 smd roundrect (at 3.7125 0.9525) (size 1.575 0.4) (layers F.Cu F.Mask F.Paste) (roundrect_rratio 0.25))
  (pad 33 smd roundrect (at 3.7125 0.3175) (size 1.575 0.4) (layers F.Cu F.Mask F.Paste) (roundrect_rratio 0.25))
  (pad 34 smd roundrect (at 3.7125 -0.3175) (size 1.575 0.4) (layers F.Cu F.Mask F.Paste) (roundrect_rratio 0.25))
  (pad 35 smd roundrect (at 3.7125 -0.9525) (size 1.575 0.4) (layers F.Cu F.Mask F.Paste) (roundrect_rratio 0.25))
  (pad 36 smd roundrect (at 3.7125 -1.5875) (size 1.575 0.4) (layers F.Cu F.Mask F.Paste) (roundrect_rratio 0.25))
  (pad 37 smd roundrect (at 3.7125 -2.2225) (size 1.575 0.4) (layers F.Cu F.Mask F.Paste) (roundrect_rratio 0.25))
  (pad 38 smd roundrect (at 3.7125 -2.8575) (size 1.575 0.4) (layers F.Cu F.Mask F.Paste) (roundrect_rratio 0.25))
  (pad 39 smd roundrect (at 3.7125 -3.4925) (size 1.575 0.4) (layers F.Cu F.Mask F.Paste) (roundrect_rratio 0.25))
  (pad 40 smd roundrect (at 3.7125 -4.1275) (size 1.575 0.4) (layers F.Cu F.Mask F.Paste) (roundrect_rratio 0.25))
  (pad 41 smd roundrect (at 3.7125 -4.7625) (size 1.575 0.4) (layers F.Cu F.Mask F.Paste) (roundrect_rratio 0.25))
  (pad 42 smd roundrect (at 3.7125 -5.3975) (size 1.575 0.4) (layers F.Cu F.Mask F.Paste) (roundrect_rratio 0.25))
  (pad 43 smd roundrect (at 3.7125 -6.0325) (size 1.575 0.4) (layers F.Cu F.Mask F.Paste) (roundrect_rratio 0.25))
  (pad 44 smd roundrect (at 3.7125 -6.6675) (size 1.575 0.4) (layers F.Cu F.Mask F.Paste) (roundrect_rratio 0.25))
  (fp_poly (pts (xy -3.775 -7.1275) (xy -3.955 -7.3795) (xy -3.595 -7.3795) (xy -3.775 -7.1275))
    (stroke (width 0.12) (type solid)) (fill solid) (layer F.SilkS))
  (fp_text user ${REFERENCE} (at 0 0) (layer F.Fab)
    (effects (font (size 1 1) (thickness 0.15)))
  )
  (model ${KICAD7_3DMODEL_DIR}/Package_SO.3dshapes/HTSSOP-44_6.1x14mm_P0.635mm_TopEP4.14x7.01mm.wrl
    (offset (xyz 0 0 0))
    (scale (xyz 1 1 1))
    (rotate (xyz 0 0 0))
  )
)
