(footprint TSOP-I-48_14.4x12mm_P0.5mm (version 20221018) (generator kicad-footprint-generator)
  (layer F.Cu)
  (descr "TSOP-I, 48 Pin (https://www.jedec.org/standards-documents/docs/mo-142-d variation DB), generated with kicad-footprint-generator ipc_gullwing_generator.py")
  (tags "TSOP-I SO")
  (attr smd)
  (fp_text reference REF** (at 0 -6.95) (layer F.SilkS)
    (effects (font (size 1 1) (thickness 0.15)))
  )
  (fp_text value TSOP-I-48_14.4x12mm_P0.5mm (at 0 6.95) (layer F.Fab)
    (effects (font (size 1 1) (thickness 0.15)))
  )
  (fp_line (start -8.72 -6.25) (end -8.72 6.25)
    (stroke (width 0.05) (type solid)) (layer F.CrtYd))
  (fp_line (start -8.72 6.25) (end 8.72 6.25)
    (stroke (width 0.05) (type solid)) (layer F.CrtYd))
  (fp_line (start 8.72 6.25) (end 8.72 -6.25)
    (stroke (width 0.05) (type solid)) (layer F.CrtYd))
  (fp_line (start 8.72 -6.25) (end -8.72 -6.25)
    (stroke (width 0.05) (type solid)) (layer F.CrtYd))
  (fp_line (start 0 6.16) (end 7.2 6.16)
    (stroke (width 0.12) (type solid)) (layer F.SilkS))
  (fp_line (start 0 6.16) (end -7.2 6.16)
    (stroke (width 0.12) (type solid)) (layer F.SilkS))
  (fp_line (start 0 -6.16) (end 7.2 -6.16)
    (stroke (width 0.12) (type solid)) (layer F.SilkS))
  (fp_line (start 0 -6.16) (end -7.2 -6.16)
    (stroke (width 0.12) (type solid)) (layer F.SilkS))
  (fp_line (start -6.2 -6) (end 7.2 -6)
    (stroke (width 0.1) (type solid)) (layer F.Fab))
  (fp_line (start 7.2 -6) (end 7.2 6)
    (stroke (width 0.1) (type solid)) (layer F.Fab))
  (fp_line (start 7.2 6) (end -7.2 6)
    (stroke (width 0.1) (type solid)) (layer F.Fab))
  (fp_line (start -7.2 6) (end -7.2 -5)
    (stroke (width 0.1) (type solid)) (layer F.Fab))
  (fp_line (start -7.2 -5) (end -6.2 -6)
    (stroke (width 0.1) (type solid)) (layer F.Fab))
  (pad 1 smd roundrect (at -7.6875 -5.75) (size 1.575 0.3) (layers F.Cu F.Mask F.Paste) (roundrect_rratio 0.25))
  (pad 2 smd roundrect (at -7.6875 -5.25) (size 1.575 0.3) (layers F.Cu F.Mask F.Paste) (roundrect_rratio 0.25))
  (pad 3 smd roundrect (at -7.6875 -4.75) (size 1.575 0.3) (layers F.Cu F.Mask F.Paste) (roundrect_rratio 0.25))
  (pad 4 smd roundrect (at -7.6875 -4.25) (size 1.575 0.3) (layers F.Cu F.Mask F.Paste) (roundrect_rratio 0.25))
  (pad 5 smd roundrect (at -7.6875 -3.75) (size 1.575 0.3) (layers F.Cu F.Mask F.Paste) (roundrect_rratio 0.25))
  (pad 6 smd roundrect (at -7.6875 -3.25) (size 1.575 0.3) (layers F.Cu F.Mask F.Paste) (roundrect_rratio 0.25))
  (pad 7 smd roundrect (at -7.6875 -2.75) (size 1.575 0.3) (layers F.Cu F.Mask F.Paste) (roundrect_rratio 0.25))
  (pad 8 smd roundrect (at -7.6875 -2.25) (size 1.575 0.3) (layers F.Cu F.Mask F.Paste) (roundrect_rratio 0.25))
  (pad 9 smd roundrect (at -7.6875 -1.75) (size 1.575 0.3) (layers F.Cu F.Mask F.Paste) (roundrect_rratio 0.25))
  (pad 10 smd roundrect (at -7.6875 -1.25) (size 1.575 0.3) (layers F.Cu F.Mask F.Paste) (roundrect_rratio 0.25))
  (pad 11 smd roundrect (at -7.6875 -0.75) (size 1.575 0.3) (layers F.Cu F.Mask F.Paste) (roundrect_rratio 0.25))
  (pad 12 smd roundrect (at -7.6875 -0.25) (size 1.575 0.3) (layers F.Cu F.Mask F.Paste) (roundrect_rratio 0.25))
  (pad 13 smd roundrect (at -7.6875 0.25) (size 1.575 0.3) (layers F.Cu F.Mask F.Paste) (roundrect_rratio 0.25))
  (pad 14 smd roundrect (at -7.6875 0.75) (size 1.575 0.3) (layers F.Cu F.Mask F.Paste) (roundrect_rratio 0.25))
  (pad 15 smd roundrect (at -7.6875 1.25) (size 1.575 0.3) (layers F.Cu F.Mask F.Paste) (roundrect_rratio 0.25))
  (pad 16 smd roundrect (at -7.6875 1.75) (size 1.575 0.3) (layers F.Cu F.Mask F.Paste) (roundrect_rratio 0.25))
  (pad 17 smd roundrect (at -7.6875 2.25) (size 1.575 0.3) (layers F.Cu F.Mask F.Paste) (roundrect_rratio 0.25))
  (pad 18 smd roundrect (at -7.6875 2.75) (size 1.575 0.3) (layers F.Cu F.Mask F.Paste) (roundrect_rratio 0.25))
  (pad 19 smd roundrect (at -7.6875 3.25) (size 1.575 0.3) (layers F.Cu F.Mask F.Paste) (roundrect_rratio 0.25))
  (pad 20 smd roundrect (at -7.6875 3.75) (size 1.575 0.3) (layers F.Cu F.Mask F.Paste) (roundrect_rratio 0.25))
  (pad 21 smd roundrect (at -7.6875 4.25) (size 1.575 0.3) (layers F.Cu F.Mask F.Paste) (roundrect_rratio 0.25))
  (pad 22 smd roundrect (at -7.6875 4.75) (size 1.575 0.3) (layers F.Cu F.Mask F.Paste) (roundrect_rratio 0.25))
  (pad 23 smd roundrect (at -7.6875 5.25) (size 1.575 0.3) (layers F.Cu F.Mask F.Paste) (roundrect_rratio 0.25))
  (pad 24 smd roundrect (at -7.6875 5.75) (size 1.575 0.3) (layers F.Cu F.Mask F.Paste) (roundrect_rratio 0.25))
  (pad 25 smd roundrect (at 7.6875 5.75) (size 1.575 0.3) (layers F.Cu F.Mask F.Paste) (roundrect_rratio 0.25))
  (pad 26 smd roundrect (at 7.6875 5.25) (size 1.575 0.3) (layers F.Cu F.Mask F.Paste) (roundrect_rratio 0.25))
  (pad 27 smd roundrect (at 7.6875 4.75) (size 1.575 0.3) (layers F.Cu F.Mask F.Paste) (roundrect_rratio 0.25))
  (pad 28 smd roundrect (at 7.6875 4.25) (size 1.575 0.3) (layers F.Cu F.Mask F.Paste) (roundrect_rratio 0.25))
  (pad 29 smd roundrect (at 7.6875 3.75) (size 1.575 0.3) (layers F.Cu F.Mask F.Paste) (roundrect_rratio 0.25))
  (pad 30 smd roundrect (at 7.6875 3.25) (size 1.575 0.3) (layers F.Cu F.Mask F.Paste) (roundrect_rratio 0.25))
  (pad 31 smd roundrect (at 7.6875 2.75) (size 1.575 0.3) (layers F.Cu F.Mask F.Paste) (roundrect_rratio 0.25))
  (pad 32 smd roundrect (at 7.6875 2.25) (size 1.575 0.3) (layers F.Cu F.Mask F.Paste) (roundrect_rratio 0.25))
  (pad 33 smd roundrect (at 7.6875 1.75) (size 1.575 0.3) (layers F.Cu F.Mask F.Paste) (roundrect_rratio 0.25))
  (pad 34 smd roundrect (at 7.6875 1.25) (size 1.575 0.3) (layers F.Cu F.Mask F.Paste) (roundrect_rratio 0.25))
  (pad 35 smd roundrect (at 7.6875 0.75) (size 1.575 0.3) (layers F.Cu F.Mask F.Paste) (roundrect_rratio 0.25))
  (pad 36 smd roundrect (at 7.6875 0.25) (size 1.575 0.3) (layers F.Cu F.Mask F.Paste) (roundrect_rratio 0.25))
  (pad 37 smd roundrect (at 7.6875 -0.25) (size 1.575 0.3) (layers F.Cu F.Mask F.Paste) (roundrect_rratio 0.25))
  (pad 38 smd roundrect (at 7.6875 -0.75) (size 1.575 0.3) (layers F.Cu F.Mask F.Paste) (roundrect_rratio 0.25))
  (pad 39 smd roundrect (at 7.6875 -1.25) (size 1.575 0.3) (layers F.Cu F.Mask F.Paste) (roundrect_rratio 0.25))
  (pad 40 smd roundrect (at 7.6875 -1.75) (size 1.575 0.3) (layers F.Cu F.Mask F.Paste) (roundrect_rratio 0.25))
  (pad 41 smd roundrect (at 7.6875 -2.25) (size 1.575 0.3) (layers F.Cu F.Mask F.Paste) (roundrect_rratio 0.25))
  (pad 42 smd roundrect (at 7.6875 -2.75) (size 1.575 0.3) (layers F.Cu F.Mask F.Paste) (roundrect_rratio 0.25))
  (pad 43 smd roundrect (at 7.6875 -3.25) (size 1.575 0.3) (layers F.Cu F.Mask F.Paste) (roundrect_rratio 0.25))
  (pad 44 smd roundrect (at 7.6875 -3.75) (size 1.575 0.3) (layers F.Cu F.Mask F.Paste) (roundrect_rratio 0.25))
  (pad 45 smd roundrect (at 7.6875 -4.25) (size 1.575 0.3) (layers F.Cu F.Mask F.Paste) (roundrect_rratio 0.25))
  (pad 46 smd roundrect (at 7.6875 -4.75) (size 1.575 0.3) (layers F.Cu F.Mask F.Paste) (roundrect_rratio 0.25))
  (pad 47 smd roundrect (at 7.6875 -5.25) (size 1.575 0.3) (layers F.Cu F.Mask F.Paste) (roundrect_rratio 0.25))
  (pad 48 smd roundrect (at 7.6875 -5.75) (size 1.575 0.3) (layers F.Cu F.Mask F.Paste) (roundrect_rratio 0.25))
  (fp_poly (pts (xy -7.8375 -6.16) (xy -8.0175 -6.412) (xy -7.6575 -6.412) (xy -7.8375 -6.16))
    (stroke (width 0.12) (type solid)) (fill solid) (layer F.SilkS))
  (fp_text user ${REFERENCE} (at 0 0) (layer F.Fab)
    (effects (font (size 1 1) (thickness 0.15)))
  )
  (model ${KICAD7_3DMODEL_DIR}/Package_SO.3dshapes/TSOP-I-48_14.4x12mm_P0.5mm.wrl
    (offset (xyz 0 0 0))
    (scale (xyz 1 1 1))
    (rotate (xyz 0 0 0))
  )
)
