(footprint LQFP-208_28x28mm_P0.5mm (version 20221018) (generator kicad-footprint-generator)
  (layer F.Cu)
  (descr "LQFP, 208 Pin (https://www.nxp.com/docs/en/package-information/SOT459-1.pdf), generated with kicad-footprint-generator ipc_gullwing_generator.py")
  (tags "LQFP QFP")
  (attr smd)
  (fp_text reference REF** (at 0 -16.38) (layer F.SilkS)
    (effects (font (size 1 1) (thickness 0.15)))
  )
  (fp_text value LQFP-208_28x28mm_P0.5mm (at 0 16.38) (layer F.Fab)
    (effects (font (size 1 1) (thickness 0.15)))
  )
  (fp_line (start 0 -15.68) (end -13.15 -15.68)
    (stroke (width 0.05) (type solid)) (layer F.CrtYd))
  (fp_line (start -13.15 -15.68) (end -13.15 -14.25)
    (stroke (width 0.05) (type solid)) (layer F.CrtYd))
  (fp_line (start -13.15 -14.25) (end -14.25 -14.25)
    (stroke (width 0.05) (type solid)) (layer F.CrtYd))
  (fp_line (start -14.25 -14.25) (end -14.25 -13.15)
    (stroke (width 0.05) (type solid)) (layer F.CrtYd))
  (fp_line (start -14.25 -13.15) (end -15.68 -13.15)
    (stroke (width 0.05) (type solid)) (layer F.CrtYd))
  (fp_line (start -15.68 -13.15) (end -15.68 0)
    (stroke (width 0.05) (type solid)) (layer F.CrtYd))
  (fp_line (start 0 -15.68) (end 13.15 -15.68)
    (stroke (width 0.05) (type solid)) (layer F.CrtYd))
  (fp_line (start 13.15 -15.68) (end 13.15 -14.25)
    (stroke (width 0.05) (type solid)) (layer F.CrtYd))
  (fp_line (start 13.15 -14.25) (end 14.25 -14.25)
    (stroke (width 0.05) (type solid)) (layer F.CrtYd))
  (fp_line (start 14.25 -14.25) (end 14.25 -13.15)
    (stroke (width 0.05) (type solid)) (layer F.CrtYd))
  (fp_line (start 14.25 -13.15) (end 15.68 -13.15)
    (stroke (width 0.05) (type solid)) (layer F.CrtYd))
  (fp_line (start 15.68 -13.15) (end 15.68 0)
    (stroke (width 0.05) (type solid)) (layer F.CrtYd))
  (fp_line (start 0 15.68) (end -13.15 15.68)
    (stroke (width 0.05) (type solid)) (layer F.CrtYd))
  (fp_line (start -13.15 15.68) (end -13.15 14.25)
    (stroke (width 0.05) (type solid)) (layer F.CrtYd))
  (fp_line (start -13.15 14.25) (end -14.25 14.25)
    (stroke (width 0.05) (type solid)) (layer F.CrtYd))
  (fp_line (start -14.25 14.25) (end -14.25 13.15)
    (stroke (width 0.05) (type solid)) (layer F.CrtYd))
  (fp_line (start -14.25 13.15) (end -15.68 13.15)
    (stroke (width 0.05) (type solid)) (layer F.CrtYd))
  (fp_line (start -15.68 13.15) (end -15.68 0)
    (stroke (width 0.05) (type solid)) (layer F.CrtYd))
  (fp_line (start 0 15.68) (end 13.15 15.68)
    (stroke (width 0.05) (type solid)) (layer F.CrtYd))
  (fp_line (start 13.15 15.68) (end 13.15 14.25)
    (stroke (width 0.05) (type solid)) (layer F.CrtYd))
  (fp_line (start 13.15 14.25) (end 14.25 14.25)
    (stroke (width 0.05) (type solid)) (layer F.CrtYd))
  (fp_line (start 14.25 14.25) (end 14.25 13.15)
    (stroke (width 0.05) (type solid)) (layer F.CrtYd))
  (fp_line (start 14.25 13.15) (end 15.68 13.15)
    (stroke (width 0.05) (type solid)) (layer F.CrtYd))
  (fp_line (start 15.68 13.15) (end 15.68 0)
    (stroke (width 0.05) (type solid)) (layer F.CrtYd))
  (fp_line (start 13.16 14.11) (end 14.11 14.11)
    (stroke (width 0.12) (type solid)) (layer F.SilkS))
  (fp_line (start 14.11 14.11) (end 14.11 13.16)
    (stroke (width 0.12) (type solid)) (layer F.SilkS))
  (fp_line (start -13.16 14.11) (end -14.11 14.11)
    (stroke (width 0.12) (type solid)) (layer F.SilkS))
  (fp_line (start -14.11 14.11) (end -14.11 13.16)
    (stroke (width 0.12) (type solid)) (layer F.SilkS))
  (fp_line (start 13.16 -14.11) (end 14.11 -14.11)
    (stroke (width 0.12) (type solid)) (layer F.SilkS))
  (fp_line (start 14.11 -14.11) (end 14.11 -13.16)
    (stroke (width 0.12) (type solid)) (layer F.SilkS))
  (fp_line (start -13.16 -14.11) (end -14.11 -14.11)
    (stroke (width 0.12) (type solid)) (layer F.SilkS))
  (fp_line (start -14.11 -14.11) (end -14.11 -13.16)
    (stroke (width 0.12) (type solid)) (layer F.SilkS))
  (fp_line (start -13 -14) (end 14 -14)
    (stroke (width 0.1) (type solid)) (layer F.Fab))
  (fp_line (start 14 -14) (end 14 14)
    (stroke (width 0.1) (type solid)) (layer F.Fab))
  (fp_line (start 14 14) (end -14 14)
    (stroke (width 0.1) (type solid)) (layer F.Fab))
  (fp_line (start -14 14) (end -14 -13)
    (stroke (width 0.1) (type solid)) (layer F.Fab))
  (fp_line (start -14 -13) (end -13 -14)
    (stroke (width 0.1) (type solid)) (layer F.Fab))
  (pad 1 smd roundrect (at -14.675 -12.75) (size 1.5 0.3) (layers F.Cu F.Mask F.Paste) (roundrect_rratio 0.25))
  (pad 2 smd roundrect (at -14.675 -12.25) (size 1.5 0.3) (layers F.Cu F.Mask F.Paste) (roundrect_rratio 0.25))
  (pad 3 smd roundrect (at -14.675 -11.75) (size 1.5 0.3) (layers F.Cu F.Mask F.Paste) (roundrect_rratio 0.25))
  (pad 4 smd roundrect (at -14.675 -11.25) (size 1.5 0.3) (layers F.Cu F.Mask F.Paste) (roundrect_rratio 0.25))
  (pad 5 smd roundrect (at -14.675 -10.75) (size 1.5 0.3) (layers F.Cu F.Mask F.Paste) (roundrect_rratio 0.25))
  (pad 6 smd roundrect (at -14.675 -10.25) (size 1.5 0.3) (layers F.Cu F.Mask F.Paste) (roundrect_rratio 0.25))
  (pad 7 smd roundrect (at -14.675 -9.75) (size 1.5 0.3) (layers F.Cu F.Mask F.Paste) (roundrect_rratio 0.25))
  (pad 8 smd roundrect (at -14.675 -9.25) (size 1.5 0.3) (layers F.Cu F.Mask F.Paste) (roundrect_rratio 0.25))
  (pad 9 smd roundrect (at -14.675 -8.75) (size 1.5 0.3) (layers F.Cu F.Mask F.Paste) (roundrect_rratio 0.25))
  (pad 10 smd roundrect (at -14.675 -8.25) (size 1.5 0.3) (layers F.Cu F.Mask F.Paste) (roundrect_rratio 0.25))
  (pad 11 smd roundrect (at -14.675 -7.75) (size 1.5 0.3) (layers F.Cu F.Mask F.Paste) (roundrect_rratio 0.25))
  (pad 12 smd roundrect (at -14.675 -7.25) (size 1.5 0.3) (layers F.Cu F.Mask F.Paste) (roundrect_rratio 0.25))
  (pad 13 smd roundrect (at -14.675 -6.75) (size 1.5 0.3) (layers F.Cu F.Mask F.Paste) (roundrect_rratio 0.25))
  (pad 14 smd roundrect (at -14.675 -6.25) (size 1.5 0.3) (layers F.Cu F.Mask F.Paste) (roundrect_rratio 0.25))
  (pad 15 smd roundrect (at -14.675 -5.75) (size 1.5 0.3) (layers F.Cu F.Mask F.Paste) (roundrect_rratio 0.25))
  (pad 16 smd roundrect (at -14.675 -5.25) (size 1.5 0.3) (layers F.Cu F.Mask F.Paste) (roundrect_rratio 0.25))
  (pad 17 smd roundrect (at -14.675 -4.75) (size 1.5 0.3) (layers F.Cu F.Mask F.Paste) (roundrect_rratio 0.25))
  (pad 18 smd roundrect (at -14.675 -4.25) (size 1.5 0.3) (layers F.Cu F.Mask F.Paste) (roundrect_rratio 0.25))
  (pad 19 smd roundrect (at -14.675 -3.75) (size 1.5 0.3) (layers F.Cu F.Mask F.Paste) (roundrect_rratio 0.25))
  (pad 20 smd roundrect (at -14.675 -3.25) (size 1.5 0.3) (layers F.Cu F.Mask F.Paste) (roundrect_rratio 0.25))
  (pad 21 smd roundrect (at -14.675 -2.75) (size 1.5 0.3) (layers F.Cu F.Mask F.Paste) (roundrect_rratio 0.25))
  (pad 22 smd roundrect (at -14.675 -2.25) (size 1.5 0.3) (layers F.Cu F.Mask F.Paste) (roundrect_rratio 0.25))
  (pad 23 smd roundrect (at -14.675 -1.75) (size 1.5 0.3) (layers F.Cu F.Mask F.Paste) (roundrect_rratio 0.25))
  (pad 24 smd roundrect (at -14.675 -1.25) (size 1.5 0.3) (layers F.Cu F.Mask F.Paste) (roundrect_rratio 0.25))
  (pad 25 smd roundrect (at -14.675 -0.75) (size 1.5 0.3) (layers F.Cu F.Mask F.Paste) (roundrect_rratio 0.25))
  (pad 26 smd roundrect (at -14.675 -0.25) (size 1.5 0.3) (layers F.Cu F.Mask F.Paste) (roundrect_rratio 0.25))
  (pad 27 smd roundrect (at -14.675 0.25) (size 1.5 0.3) (layers F.Cu F.Mask F.Paste) (roundrect_rratio 0.25))
  (pad 28 smd roundrect (at -14.675 0.75) (size 1.5 0.3) (layers F.Cu F.Mask F.Paste) (roundrect_rratio 0.25))
  (pad 29 smd roundrect (at -14.675 1.25) (size 1.5 0.3) (layers F.Cu F.Mask F.Paste) (roundrect_rratio 0.25))
  (pad 30 smd roundrect (at -14.675 1.75) (size 1.5 0.3) (layers F.Cu F.Mask F.Paste) (roundrect_rratio 0.25))
  (pad 31 smd roundrect (at -14.675 2.25) (size 1.5 0.3) (layers F.Cu F.Mask F.Paste) (roundrect_rratio 0.25))
  (pad 32 smd roundrect (at -14.675 2.75) (size 1.5 0.3) (layers F.Cu F.Mask F.Paste) (roundrect_rratio 0.25))
  (pad 33 smd roundrect (at -14.675 3.25) (size 1.5 0.3) (layers F.Cu F.Mask F.Paste) (roundrect_rratio 0.25))
  (pad 34 smd roundrect (at -14.675 3.75) (size 1.5 0.3) (layers F.Cu F.Mask F.Paste) (roundrect_rratio 0.25))
  (pad 35 smd roundrect (at -14.675 4.25) (size 1.5 0.3) (layers F.Cu F.Mask F.Paste) (roundrect_rratio 0.25))
  (pad 36 smd roundrect (at -14.675 4.75) (size 1.5 0.3) (layers F.Cu F.Mask F.Paste) (roundrect_rratio 0.25))
  (pad 37 smd roundrect (at -14.675 5.25) (size 1.5 0.3) (layers F.Cu F.Mask F.Paste) (roundrect_rratio 0.25))
  (pad 38 smd roundrect (at -14.675 5.75) (size 1.5 0.3) (layers F.Cu F.Mask F.Paste) (roundrect_rratio 0.25))
  (pad 39 smd roundrect (at -14.675 6.25) (size 1.5 0.3) (layers F.Cu F.Mask F.Paste) (roundrect_rratio 0.25))
  (pad 40 smd roundrect (at -14.675 6.75) (size 1.5 0.3) (layers F.Cu F.Mask F.Paste) (roundrect_rratio 0.25))
  (pad 41 smd roundrect (at -14.675 7.25) (size 1.5 0.3) (layers F.Cu F.Mask F.Paste) (roundrect_rratio 0.25))
  (pad 42 smd roundrect (at -14.675 7.75) (size 1.5 0.3) (layers F.Cu F.Mask F.Paste) (roundrect_rratio 0.25))
  (pad 43 smd roundrect (at -14.675 8.25) (size 1.5 0.3) (layers F.Cu F.Mask F.Paste) (roundrect_rratio 0.25))
  (pad 44 smd roundrect (at -14.675 8.75) (size 1.5 0.3) (layers F.Cu F.Mask F.Paste) (roundrect_rratio 0.25))
  (pad 45 smd roundrect (at -14.675 9.25) (size 1.5 0.3) (layers F.Cu F.Mask F.Paste) (roundrect_rratio 0.25))
  (pad 46 smd roundrect (at -14.675 9.75) (size 1.5 0.3) (layers F.Cu F.Mask F.Paste) (roundrect_rratio 0.25))
  (pad 47 smd roundrect (at -14.675 10.25) (size 1.5 0.3) (layers F.Cu F.Mask F.Paste) (roundrect_rratio 0.25))
  (pad 48 smd roundrect (at -14.675 10.75) (size 1.5 0.3) (layers F.Cu F.Mask F.Paste) (roundrect_rratio 0.25))
  (pad 49 smd roundrect (at -14.675 11.25) (size 1.5 0.3) (layers F.Cu F.Mask F.Paste) (roundrect_rratio 0.25))
  (pad 50 smd roundrect (at -14.675 11.75) (size 1.5 0.3) (layers F.Cu F.Mask F.Paste) (roundrect_rratio 0.25))
  (pad 51 smd roundrect (at -14.675 12.25) (size 1.5 0.3) (layers F.Cu F.Mask F.Paste) (roundrect_rratio 0.25))
  (pad 52 smd roundrect (at -14.675 12.75) (size 1.5 0.3) (layers F.Cu F.Mask F.Paste) (roundrect_rratio 0.25))
  (pad 53 smd roundrect (at -12.75 14.675) (size 0.3 1.5) (layers F.Cu F.Mask F.Paste) (roundrect_rratio 0.25))
  (pad 54 smd roundrect (at -12.25 14.675) (size 0.3 1.5) (layers F.Cu F.Mask F.Paste) (roundrect_rratio 0.25))
  (pad 55 smd roundrect (at -11.75 14.675) (size 0.3 1.5) (layers F.Cu F.Mask F.Paste) (roundrect_rratio 0.25))
  (pad 56 smd roundrect (at -11.25 14.675) (size 0.3 1.5) (layers F.Cu F.Mask F.Paste) (roundrect_rratio 0.25))
  (pad 57 smd roundrect (at -10.75 14.675) (size 0.3 1.5) (layers F.Cu F.Mask F.Paste) (roundrect_rratio 0.25))
  (pad 58 smd roundrect (at -10.25 14.675) (size 0.3 1.5) (layers F.Cu F.Mask F.Paste) (roundrect_rratio 0.25))
  (pad 59 smd roundrect (at -9.75 14.675) (size 0.3 1.5) (layers F.Cu F.Mask F.Paste) (roundrect_rratio 0.25))
  (pad 60 smd roundrect (at -9.25 14.675) (size 0.3 1.5) (layers F.Cu F.Mask F.Paste) (roundrect_rratio 0.25))
  (pad 61 smd roundrect (at -8.75 14.675) (size 0.3 1.5) (layers F.Cu F.Mask F.Paste) (roundrect_rratio 0.25))
  (pad 62 smd roundrect (at -8.25 14.675) (size 0.3 1.5) (layers F.Cu F.Mask F.Paste) (roundrect_rratio 0.25))
  (pad 63 smd roundrect (at -7.75 14.675) (size 0.3 1.5) (layers F.Cu F.Mask F.Paste) (roundrect_rratio 0.25))
  (pad 64 smd roundrect (at -7.25 14.675) (size 0.3 1.5) (layers F.Cu F.Mask F.Paste) (roundrect_rratio 0.25))
  (pad 65 smd roundrect (at -6.75 14.675) (size 0.3 1.5) (layers F.Cu F.Mask F.Paste) (roundrect_rratio 0.25))
  (pad 66 smd roundrect (at -6.25 14.675) (size 0.3 1.5) (layers F.Cu F.Mask F.Paste) (roundrect_rratio 0.25))
  (pad 67 smd roundrect (at -5.75 14.675) (size 0.3 1.5) (layers F.Cu F.Mask F.Paste) (roundrect_rratio 0.25))
  (pad 68 smd roundrect (at -5.25 14.675) (size 0.3 1.5) (layers F.Cu F.Mask F.Paste) (roundrect_rratio 0.25))
  (pad 69 smd roundrect (at -4.75 14.675) (size 0.3 1.5) (layers F.Cu F.Mask F.Paste) (roundrect_rratio 0.25))
  (pad 70 smd roundrect (at -4.25 14.675) (size 0.3 1.5) (layers F.Cu F.Mask F.Paste) (roundrect_rratio 0.25))
  (pad 71 smd roundrect (at -3.75 14.675) (size 0.3 1.5) (layers F.Cu F.Mask F.Paste) (roundrect_rratio 0.25))
  (pad 72 smd roundrect (at -3.25 14.675) (size 0.3 1.5) (layers F.Cu F.Mask F.Paste) (roundrect_rratio 0.25))
  (pad 73 smd roundrect (at -2.75 14.675) (size 0.3 1.5) (layers F.Cu F.Mask F.Paste) (roundrect_rratio 0.25))
  (pad 74 smd roundrect (at -2.25 14.675) (size 0.3 1.5) (layers F.Cu F.Mask F.Paste) (roundrect_rratio 0.25))
  (pad 75 smd roundrect (at -1.75 14.675) (size 0.3 1.5) (layers F.Cu F.Mask F.Paste) (roundrect_rratio 0.25))
  (pad 76 smd roundrect (at -1.25 14.675) (size 0.3 1.5) (layers F.Cu F.Mask F.Paste) (roundrect_rratio 0.25))
  (pad 77 smd roundrect (at -0.75 14.675) (size 0.3 1.5) (layers F.Cu F.Mask F.Paste) (roundrect_rratio 0.25))
  (pad 78 smd roundrect (at -0.25 14.675) (size 0.3 1.5) (layers F.Cu F.Mask F.Paste) (roundrect_rratio 0.25))
  (pad 79 smd roundrect (at 0.25 14.675) (size 0.3 1.5) (layers F.Cu F.Mask F.Paste) (roundrect_rratio 0.25))
  (pad 80 smd roundrect (at 0.75 14.675) (size 0.3 1.5) (layers F.Cu F.Mask F.Paste) (roundrect_rratio 0.25))
  (pad 81 smd roundrect (at 1.25 14.675) (size 0.3 1.5) (layers F.Cu F.Mask F.Paste) (roundrect_rratio 0.25))
  (pad 82 smd roundrect (at 1.75 14.675) (size 0.3 1.5) (layers F.Cu F.Mask F.Paste) (roundrect_rratio 0.25))
  (pad 83 smd roundrect (at 2.25 14.675) (size 0.3 1.5) (layers F.Cu F.Mask F.Paste) (roundrect_rratio 0.25))
  (pad 84 smd roundrect (at 2.75 14.675) (size 0.3 1.5) (layers F.Cu F.Mask F.Paste) (roundrect_rratio 0.25))
  (pad 85 smd roundrect (at 3.25 14.675) (size 0.3 1.5) (layers F.Cu F.Mask F.Paste) (roundrect_rratio 0.25))
  (pad 86 smd roundrect (at 3.75 14.675) (size 0.3 1.5) (layers F.Cu F.Mask F.Paste) (roundrect_rratio 0.25))
  (pad 87 smd roundrect (at 4.25 14.675) (size 0.3 1.5) (layers F.Cu F.Mask F.Paste) (roundrect_rratio 0.25))
  (pad 88 smd roundrect (at 4.75 14.675) (size 0.3 1.5) (layers F.Cu F.Mask F.Paste) (roundrect_rratio 0.25))
  (pad 89 smd roundrect (at 5.25 14.675) (size 0.3 1.5) (layers F.Cu F.Mask F.Paste) (roundrect_rratio 0.25))
  (pad 90 smd roundrect (at 5.75 14.675) (size 0.3 1.5) (layers F.Cu F.Mask F.Paste) (roundrect_rratio 0.25))
  (pad 91 smd roundrect (at 6.25 14.675) (size 0.3 1.5) (layers F.Cu F.Mask F.Paste) (roundrect_rratio 0.25))
  (pad 92 smd roundrect (at 6.75 14.675) (size 0.3 1.5) (layers F.Cu F.Mask F.Paste) (roundrect_rratio 0.25))
  (pad 93 smd roundrect (at 7.25 14.675) (size 0.3 1.5) (layers F.Cu F.Mask F.Paste) (roundrect_rratio 0.25))
  (pad 94 smd roundrect (at 7.75 14.675) (size 0.3 1.5) (layers F.Cu F.Mask F.Paste) (roundrect_rratio 0.25))
  (pad 95 smd roundrect (at 8.25 14.675) (size 0.3 1.5) (layers F.Cu F.Mask F.Paste) (roundrect_rratio 0.25))
  (pad 96 smd roundrect (at 8.75 14.675) (size 0.3 1.5) (layers F.Cu F.Mask F.Paste) (roundrect_rratio 0.25))
  (pad 97 smd roundrect (at 9.25 14.675) (size 0.3 1.5) (layers F.Cu F.Mask F.Paste) (roundrect_rratio 0.25))
  (pad 98 smd roundrect (at 9.75 14.675) (size 0.3 1.5) (layers F.Cu F.Mask F.Paste) (roundrect_rratio 0.25))
  (pad 99 smd roundrect (at 10.25 14.675) (size 0.3 1.5) (layers F.Cu F.Mask F.Paste) (roundrect_rratio 0.25))
  (pad 100 smd roundrect (at 10.75 14.675) (size 0.3 1.5) (layers F.Cu F.Mask F.Paste) (roundrect_rratio 0.25))
  (pad 101 smd roundrect (at 11.25 14.675) (size 0.3 1.5) (layers F.Cu F.Mask F.Paste) (roundrect_rratio 0.25))
  (pad 102 smd roundrect (at 11.75 14.675) (size 0.3 1.5) (layers F.Cu F.Mask F.Paste) (roundrect_rratio 0.25))
  (pad 103 smd roundrect (at 12.25 14.675) (size 0.3 1.5) (layers F.Cu F.Mask F.Paste) (roundrect_rratio 0.25))
  (pad 104 smd roundrect (at 12.75 14.675) (size 0.3 1.5) (layers F.Cu F.Mask F.Paste) (roundrect_rratio 0.25))
  (pad 105 smd roundrect (at 14.675 12.75) (size 1.5 0.3) (layers F.Cu F.Mask F.Paste) (roundrect_rratio 0.25))
  (pad 106 smd roundrect (at 14.675 12.25) (size 1.5 0.3) (layers F.Cu F.Mask F.Paste) (roundrect_rratio 0.25))
  (pad 107 smd roundrect (at 14.675 11.75) (size 1.5 0.3) (layers F.Cu F.Mask F.Paste) (roundrect_rratio 0.25))
  (pad 108 smd roundrect (at 14.675 11.25) (size 1.5 0.3) (layers F.Cu F.Mask F.Paste) (roundrect_rratio 0.25))
  (pad 109 smd roundrect (at 14.675 10.75) (size 1.5 0.3) (layers F.Cu F.Mask F.Paste) (roundrect_rratio 0.25))
  (pad 110 smd roundrect (at 14.675 10.25) (size 1.5 0.3) (layers F.Cu F.Mask F.Paste) (roundrect_rratio 0.25))
  (pad 111 smd roundrect (at 14.675 9.75) (size 1.5 0.3) (layers F.Cu F.Mask F.Paste) (roundrect_rratio 0.25))
  (pad 112 smd roundrect (at 14.675 9.25) (size 1.5 0.3) (layers F.Cu F.Mask F.Paste) (roundrect_rratio 0.25))
  (pad 113 smd roundrect (at 14.675 8.75) (size 1.5 0.3) (layers F.Cu F.Mask F.Paste) (roundrect_rratio 0.25))
  (pad 114 smd roundrect (at 14.675 8.25) (size 1.5 0.3) (layers F.Cu F.Mask F.Paste) (roundrect_rratio 0.25))
  (pad 115 smd roundrect (at 14.675 7.75) (size 1.5 0.3) (layers F.Cu F.Mask F.Paste) (roundrect_rratio 0.25))
  (pad 116 smd roundrect (at 14.675 7.25) (size 1.5 0.3) (layers F.Cu F.Mask F.Paste) (roundrect_rratio 0.25))
  (pad 117 smd roundrect (at 14.675 6.75) (size 1.5 0.3) (layers F.Cu F.Mask F.Paste) (roundrect_rratio 0.25))
  (pad 118 smd roundrect (at 14.675 6.25) (size 1.5 0.3) (layers F.Cu F.Mask F.Paste) (roundrect_rratio 0.25))
  (pad 119 smd roundrect (at 14.675 5.75) (size 1.5 0.3) (layers F.Cu F.Mask F.Paste) (roundrect_rratio 0.25))
  (pad 120 smd roundrect (at 14.675 5.25) (size 1.5 0.3) (layers F.Cu F.Mask F.Paste) (roundrect_rratio 0.25))
  (pad 121 smd roundrect (at 14.675 4.75) (size 1.5 0.3) (layers F.Cu F.Mask F.Paste) (roundrect_rratio 0.25))
  (pad 122 smd roundrect (at 14.675 4.25) (size 1.5 0.3) (layers F.Cu F.Mask F.Paste) (roundrect_rratio 0.25))
  (pad 123 smd roundrect (at 14.675 3.75) (size 1.5 0.3) (layers F.Cu F.Mask F.Paste) (roundrect_rratio 0.25))
  (pad 124 smd roundrect (at 14.675 3.25) (size 1.5 0.3) (layers F.Cu F.Mask F.Paste) (roundrect_rratio 0.25))
  (pad 125 smd roundrect (at 14.675 2.75) (size 1.5 0.3) (layers F.Cu F.Mask F.Paste) (roundrect_rratio 0.25))
  (pad 126 smd roundrect (at 14.675 2.25) (size 1.5 0.3) (layers F.Cu F.Mask F.Paste) (roundrect_rratio 0.25))
  (pad 127 smd roundrect (at 14.675 1.75) (size 1.5 0.3) (layers F.Cu F.Mask F.Paste) (roundrect_rratio 0.25))
  (pad 128 smd roundrect (at 14.675 1.25) (size 1.5 0.3) (layers F.Cu F.Mask F.Paste) (roundrect_rratio 0.25))
  (pad 129 smd roundrect (at 14.675 0.75) (size 1.5 0.3) (layers F.Cu F.Mask F.Paste) (roundrect_rratio 0.25))
  (pad 130 smd roundrect (at 14.675 0.25) (size 1.5 0.3) (layers F.Cu F.Mask F.Paste) (roundrect_rratio 0.25))
  (pad 131 smd roundrect (at 14.675 -0.25) (size 1.5 0.3) (layers F.Cu F.Mask F.Paste) (roundrect_rratio 0.25))
  (pad 132 smd roundrect (at 14.675 -0.75) (size 1.5 0.3) (layers F.Cu F.Mask F.Paste) (roundrect_rratio 0.25))
  (pad 133 smd roundrect (at 14.675 -1.25) (size 1.5 0.3) (layers F.Cu F.Mask F.Paste) (roundrect_rratio 0.25))
  (pad 134 smd roundrect (at 14.675 -1.75) (size 1.5 0.3) (layers F.Cu F.Mask F.Paste) (roundrect_rratio 0.25))
  (pad 135 smd roundrect (at 14.675 -2.25) (size 1.5 0.3) (layers F.Cu F.Mask F.Paste) (roundrect_rratio 0.25))
  (pad 136 smd roundrect (at 14.675 -2.75) (size 1.5 0.3) (layers F.Cu F.Mask F.Paste) (roundrect_rratio 0.25))
  (pad 137 smd roundrect (at 14.675 -3.25) (size 1.5 0.3) (layers F.Cu F.Mask F.Paste) (roundrect_rratio 0.25))
  (pad 138 smd roundrect (at 14.675 -3.75) (size 1.5 0.3) (layers F.Cu F.Mask F.Paste) (roundrect_rratio 0.25))
  (pad 139 smd roundrect (at 14.675 -4.25) (size 1.5 0.3) (layers F.Cu F.Mask F.Paste) (roundrect_rratio 0.25))
  (pad 140 smd roundrect (at 14.675 -4.75) (size 1.5 0.3) (layers F.Cu F.Mask F.Paste) (roundrect_rratio 0.25))
  (pad 141 smd roundrect (at 14.675 -5.25) (size 1.5 0.3) (layers F.Cu F.Mask F.Paste) (roundrect_rratio 0.25))
  (pad 142 smd roundrect (at 14.675 -5.75) (size 1.5 0.3) (layers F.Cu F.Mask F.Paste) (roundrect_rratio 0.25))
  (pad 143 smd roundrect (at 14.675 -6.25) (size 1.5 0.3) (layers F.Cu F.Mask F.Paste) (roundrect_rratio 0.25))
  (pad 144 smd roundrect (at 14.675 -6.75) (size 1.5 0.3) (layers F.Cu F.Mask F.Paste) (roundrect_rratio 0.25))
  (pad 145 smd roundrect (at 14.675 -7.25) (size 1.5 0.3) (layers F.Cu F.Mask F.Paste) (roundrect_rratio 0.25))
  (pad 146 smd roundrect (at 14.675 -7.75) (size 1.5 0.3) (layers F.Cu F.Mask F.Paste) (roundrect_rratio 0.25))
  (pad 147 smd roundrect (at 14.675 -8.25) (size 1.5 0.3) (layers F.Cu F.Mask F.Paste) (roundrect_rratio 0.25))
  (pad 148 smd roundrect (at 14.675 -8.75) (size 1.5 0.3) (layers F.Cu F.Mask F.Paste) (roundrect_rratio 0.25))
  (pad 149 smd roundrect (at 14.675 -9.25) (size 1.5 0.3) (layers F.Cu F.Mask F.Paste) (roundrect_rratio 0.25))
  (pad 150 smd roundrect (at 14.675 -9.75) (size 1.5 0.3) (layers F.Cu F.Mask F.Paste) (roundrect_rratio 0.25))
  (pad 151 smd roundrect (at 14.675 -10.25) (size 1.5 0.3) (layers F.Cu F.Mask F.Paste) (roundrect_rratio 0.25))
  (pad 152 smd roundrect (at 14.675 -10.75) (size 1.5 0.3) (layers F.Cu F.Mask F.Paste) (roundrect_rratio 0.25))
  (pad 153 smd roundrect (at 14.675 -11.25) (size 1.5 0.3) (layers F.Cu F.Mask F.Paste) (roundrect_rratio 0.25))
  (pad 154 smd roundrect (at 14.675 -11.75) (size 1.5 0.3) (layers F.Cu F.Mask F.Paste) (roundrect_rratio 0.25))
  (pad 155 smd roundrect (at 14.675 -12.25) (size 1.5 0.3) (layers F.Cu F.Mask F.Paste) (roundrect_rratio 0.25))
  (pad 156 smd roundrect (at 14.675 -12.75) (size 1.5 0.3) (layers F.Cu F.Mask F.Paste) (roundrect_rratio 0.25))
  (pad 157 smd roundrect (at 12.75 -14.675) (size 0.3 1.5) (layers F.Cu F.Mask F.Paste) (roundrect_rratio 0.25))
  (pad 158 smd roundrect (at 12.25 -14.675) (size 0.3 1.5) (layers F.Cu F.Mask F.Paste) (roundrect_rratio 0.25))
  (pad 159 smd roundrect (at 11.75 -14.675) (size 0.3 1.5) (layers F.Cu F.Mask F.Paste) (roundrect_rratio 0.25))
  (pad 160 smd roundrect (at 11.25 -14.675) (size 0.3 1.5) (layers F.Cu F.Mask F.Paste) (roundrect_rratio 0.25))
  (pad 161 smd roundrect (at 10.75 -14.675) (size 0.3 1.5) (layers F.Cu F.Mask F.Paste) (roundrect_rratio 0.25))
  (pad 162 smd roundrect (at 10.25 -14.675) (size 0.3 1.5) (layers F.Cu F.Mask F.Paste) (roundrect_rratio 0.25))
  (pad 163 smd roundrect (at 9.75 -14.675) (size 0.3 1.5) (layers F.Cu F.Mask F.Paste) (roundrect_rratio 0.25))
  (pad 164 smd roundrect (at 9.25 -14.675) (size 0.3 1.5) (layers F.Cu F.Mask F.Paste) (roundrect_rratio 0.25))
  (pad 165 smd roundrect (at 8.75 -14.675) (size 0.3 1.5) (layers F.Cu F.Mask F.Paste) (roundrect_rratio 0.25))
  (pad 166 smd roundrect (at 8.25 -14.675) (size 0.3 1.5) (layers F.Cu F.Mask F.Paste) (roundrect_rratio 0.25))
  (pad 167 smd roundrect (at 7.75 -14.675) (size 0.3 1.5) (layers F.Cu F.Mask F.Paste) (roundrect_rratio 0.25))
  (pad 168 smd roundrect (at 7.25 -14.675) (size 0.3 1.5) (layers F.Cu F.Mask F.Paste) (roundrect_rratio 0.25))
  (pad 169 smd roundrect (at 6.75 -14.675) (size 0.3 1.5) (layers F.Cu F.Mask F.Paste) (roundrect_rratio 0.25))
  (pad 170 smd roundrect (at 6.25 -14.675) (size 0.3 1.5) (layers F.Cu F.Mask F.Paste) (roundrect_rratio 0.25))
  (pad 171 smd roundrect (at 5.75 -14.675) (size 0.3 1.5) (layers F.Cu F.Mask F.Paste) (roundrect_rratio 0.25))
  (pad 172 smd roundrect (at 5.25 -14.675) (size 0.3 1.5) (layers F.Cu F.Mask F.Paste) (roundrect_rratio 0.25))
  (pad 173 smd roundrect (at 4.75 -14.675) (size 0.3 1.5) (layers F.Cu F.Mask F.Paste) (roundrect_rratio 0.25))
  (pad 174 smd roundrect (at 4.25 -14.675) (size 0.3 1.5) (layers F.Cu F.Mask F.Paste) (roundrect_rratio 0.25))
  (pad 175 smd roundrect (at 3.75 -14.675) (size 0.3 1.5) (layers F.Cu F.Mask F.Paste) (roundrect_rratio 0.25))
  (pad 176 smd roundrect (at 3.25 -14.675) (size 0.3 1.5) (layers F.Cu F.Mask F.Paste) (roundrect_rratio 0.25))
  (pad 177 smd roundrect (at 2.75 -14.675) (size 0.3 1.5) (layers F.Cu F.Mask F.Paste) (roundrect_rratio 0.25))
  (pad 178 smd roundrect (at 2.25 -14.675) (size 0.3 1.5) (layers F.Cu F.Mask F.Paste) (roundrect_rratio 0.25))
  (pad 179 smd roundrect (at 1.75 -14.675) (size 0.3 1.5) (layers F.Cu F.Mask F.Paste) (roundrect_rratio 0.25))
  (pad 180 smd roundrect (at 1.25 -14.675) (size 0.3 1.5) (layers F.Cu F.Mask F.Paste) (roundrect_rratio 0.25))
  (pad 181 smd roundrect (at 0.75 -14.675) (size 0.3 1.5) (layers F.Cu F.Mask F.Paste) (roundrect_rratio 0.25))
  (pad 182 smd roundrect (at 0.25 -14.675) (size 0.3 1.5) (layers F.Cu F.Mask F.Paste) (roundrect_rratio 0.25))
  (pad 183 smd roundrect (at -0.25 -14.675) (size 0.3 1.5) (layers F.Cu F.Mask F.Paste) (roundrect_rratio 0.25))
  (pad 184 smd roundrect (at -0.75 -14.675) (size 0.3 1.5) (layers F.Cu F.Mask F.Paste) (roundrect_rratio 0.25))
  (pad 185 smd roundrect (at -1.25 -14.675) (size 0.3 1.5) (layers F.Cu F.Mask F.Paste) (roundrect_rratio 0.25))
  (pad 186 smd roundrect (at -1.75 -14.675) (size 0.3 1.5) (layers F.Cu F.Mask F.Paste) (roundrect_rratio 0.25))
  (pad 187 smd roundrect (at -2.25 -14.675) (size 0.3 1.5) (layers F.Cu F.Mask F.Paste) (roundrect_rratio 0.25))
  (pad 188 smd roundrect (at -2.75 -14.675) (size 0.3 1.5) (layers F.Cu F.Mask F.Paste) (roundrect_rratio 0.25))
  (pad 189 smd roundrect (at -3.25 -14.675) (size 0.3 1.5) (layers F.Cu F.Mask F.Paste) (roundrect_rratio 0.25))
  (pad 190 smd roundrect (at -3.75 -14.675) (size 0.3 1.5) (layers F.Cu F.Mask F.Paste) (roundrect_rratio 0.25))
  (pad 191 smd roundrect (at -4.25 -14.675) (size 0.3 1.5) (layers F.Cu F.Mask F.Paste) (roundrect_rratio 0.25))
  (pad 192 smd roundrect (at -4.75 -14.675) (size 0.3 1.5) (layers F.Cu F.Mask F.Paste) (roundrect_rratio 0.25))
  (pad 193 smd roundrect (at -5.25 -14.675) (size 0.3 1.5) (layers F.Cu F.Mask F.Paste) (roundrect_rratio 0.25))
  (pad 194 smd roundrect (at -5.75 -14.675) (size 0.3 1.5) (layers F.Cu F.Mask F.Paste) (roundrect_rratio 0.25))
  (pad 195 smd roundrect (at -6.25 -14.675) (size 0.3 1.5) (layers F.Cu F.Mask F.Paste) (roundrect_rratio 0.25))
  (pad 196 smd roundrect (at -6.75 -14.675) (size 0.3 1.5) (layers F.Cu F.Mask F.Paste) (roundrect_rratio 0.25))
  (pad 197 smd roundrect (at -7.25 -14.675) (size 0.3 1.5) (layers F.Cu F.Mask F.Paste) (roundrect_rratio 0.25))
  (pad 198 smd roundrect (at -7.75 -14.675) (size 0.3 1.5) (layers F.Cu F.Mask F.Paste) (roundrect_rratio 0.25))
  (pad 199 smd roundrect (at -8.25 -14.675) (size 0.3 1.5) (layers F.Cu F.Mask F.Paste) (roundrect_rratio 0.25))
  (pad 200 smd roundrect (at -8.75 -14.675) (size 0.3 1.5) (layers F.Cu F.Mask F.Paste) (roundrect_rratio 0.25))
  (pad 201 smd roundrect (at -9.25 -14.675) (size 0.3 1.5) (layers F.Cu F.Mask F.Paste) (roundrect_rratio 0.25))
  (pad 202 smd roundrect (at -9.75 -14.675) (size 0.3 1.5) (layers F.Cu F.Mask F.Paste) (roundrect_rratio 0.25))
  (pad 203 smd roundrect (at -10.25 -14.675) (size 0.3 1.5) (layers F.Cu F.Mask F.Paste) (roundrect_rratio 0.25))
  (pad 204 smd roundrect (at -10.75 -14.675) (size 0.3 1.5) (layers F.Cu F.Mask F.Paste) (roundrect_rratio 0.25))
  (pad 205 smd roundrect (at -11.25 -14.675) (size 0.3 1.5) (layers F.Cu F.Mask F.Paste) (roundrect_rratio 0.25))
  (pad 206 smd roundrect (at -11.75 -14.675) (size 0.3 1.5) (layers F.Cu F.Mask F.Paste) (roundrect_rratio 0.25))
  (pad 207 smd roundrect (at -12.25 -14.675) (size 0.3 1.5) (layers F.Cu F.Mask F.Paste) (roundrect_rratio 0.25))
  (pad 208 smd roundrect (at -12.75 -14.675) (size 0.3 1.5) (layers F.Cu F.Mask F.Paste) (roundrect_rratio 0.25))
  (fp_poly (pts (xy -14.7125 -13.16) (xy -14.9465 -13.4876) (xy -14.4785 -13.4876) (xy -14.7125 -13.16))
    (stroke (width 0.12) (type solid)) (fill solid) (layer F.SilkS))
  (fp_text user ${REFERENCE} (at 0 0) (layer F.Fab)
    (effects (font (size 1 1) (thickness 0.15)))
  )
  (model ${KICAD7_3DMODEL_DIR}/Package_QFP.3dshapes/LQFP-208_28x28mm_P0.5mm.wrl
    (offset (xyz 0 0 0))
    (scale (xyz 1 1 1))
    (rotate (xyz 0 0 0))
  )
)
