(footprint NXP_LGA-8_3x5mm_P1.25mm_H1.2mm (version 20221018) (generator kicad-footprint-generator)
  (layer F.Cu)
  (descr "NXP  LGA, 8 Pin (https://www.nxp.com/docs/en/data-sheet/MPL115A1.pdf#page=15), generated with kicad-footprint-generator ipc_noLead_generator.py")
  (tags "NXP LGA NoLead")
  (attr smd)
  (fp_text reference REF** (at 0 -3.45) (layer F.SilkS)
    (effects (font (size 1 1) (thickness 0.15)))
  )
  (fp_text value NXP_LGA-8_3x5mm_P1.25mm_H1.2mm (at 0 3.45) (layer F.Fab)
    (effects (font (size 1 1) (thickness 0.15)))
  )
  (fp_line (start -1.5 -2.61) (end 1.5 -2.61)
    (stroke (width 0.12) (type solid)) (layer F.SilkS))
  (fp_line (start -1.5 2.61) (end 1.5 2.61)
    (stroke (width 0.12) (type solid)) (layer F.SilkS))
  (fp_line (start -0.75 -2.5) (end 1.5 -2.5)
    (stroke (width 0.1) (type solid)) (layer F.Fab))
  (fp_line (start 1.5 -2.5) (end 1.5 2.5)
    (stroke (width 0.1) (type solid)) (layer F.Fab))
  (fp_line (start 1.5 2.5) (end -1.5 2.5)
    (stroke (width 0.1) (type solid)) (layer F.Fab))
  (fp_line (start -1.5 2.5) (end -1.5 -1.75)
    (stroke (width 0.1) (type solid)) (layer F.Fab))
  (fp_line (start -1.5 -1.75) (end -0.75 -2.5)
    (stroke (width 0.1) (type solid)) (layer F.Fab))
  (fp_line (start -2 -2.75) (end -2 2.75)
    (stroke (width 0.05) (type solid)) (layer F.CrtYd))
  (fp_line (start -2 2.75) (end 2 2.75)
    (stroke (width 0.05) (type solid)) (layer F.CrtYd))
  (fp_line (start 2 2.75) (end 2 -2.75)
    (stroke (width 0.05) (type solid)) (layer F.CrtYd))
  (fp_line (start 2 -2.75) (end -2 -2.75)
    (stroke (width 0.05) (type solid)) (layer F.CrtYd))
  (pad 1 smd roundrect (at -1.15 -1.875) (size 1.2 0.5) (layers F.Cu F.Mask F.Paste) (roundrect_rratio 0.25))
  (pad 2 smd roundrect (at -1.15 -0.625) (size 1.2 0.5) (layers F.Cu F.Mask F.Paste) (roundrect_rratio 0.25))
  (pad 3 smd roundrect (at -1.15 0.625) (size 1.2 0.5) (layers F.Cu F.Mask F.Paste) (roundrect_rratio 0.25))
  (pad 4 smd roundrect (at -1.15 1.875) (size 1.2 0.5) (layers F.Cu F.Mask F.Paste) (roundrect_rratio 0.25))
  (pad 5 smd roundrect (at 1.15 1.875) (size 1.2 0.5) (layers F.Cu F.Mask F.Paste) (roundrect_rratio 0.25))
  (pad 6 smd roundrect (at 1.15 0.625) (size 1.2 0.5) (layers F.Cu F.Mask F.Paste) (roundrect_rratio 0.25))
  (pad 7 smd roundrect (at 1.15 -0.625) (size 1.2 0.5) (layers F.Cu F.Mask F.Paste) (roundrect_rratio 0.25))
  (pad 8 smd roundrect (at 1.15 -1.875) (size 1.2 0.5) (layers F.Cu F.Mask F.Paste) (roundrect_rratio 0.25))
  (fp_poly (pts (xy -1.9 -2.28) (xy -2.525 -2.28) (xy -1.9 -2.905) (xy -1.9 -2.28))
    (stroke (width 0.12) (type solid)) (fill solid) (layer F.SilkS))
  (fp_text user ${REFERENCE} (at 0 0 90) (layer F.Fab)
    (effects (font (size 1 1) (thickness 0.15)))
  )
  (model ${KICAD7_3DMODEL_DIR}/Package_LGA.3dshapes/NXP_LGA-8_3x5mm_P1.25mm_H1.2mm.wrl
    (offset (xyz 0 0 0))
    (scale (xyz 1 1 1))
    (rotate (xyz 0 0 0))
  )
)
