(footprint "Quectel_L76" (version 20221018) (generator pcbnew)
  (layer "F.Cu")
  (descr "GPS module, https://www.quectel.com/wp-content/uploads/2021/03/Quectel_L76L76-L_Hardware_Design_V3.2-1.pdf")
  (tags "Quectel GPS L76 L76-L")
  (attr smd)
  (fp_text reference "REF**" (at 0 -5.8) (layer "F.SilkS")
      (effects (font (size 1 1) (thickness 0.15)))
    (tstamp 88249b00-9715-4e64-99ed-5e1a8eb396c1)
  )
  (fp_text value "Quectel_L76" (at 0 5.8 unlocked) (layer "F.Fab")
      (effects (font (size 1 1) (thickness 0.15)))
    (tstamp a5d2aaf0-6ffe-4392-b17b-1648695457e1)
  )
  (fp_text user "${REFERENCE}" (at 0 0) (layer "F.Fab")
      (effects (font (size 1 1) (thickness 0.15)))
    (tstamp 51d90633-2a3c-41b0-8695-aa4fc7a870f5)
  )
  (fp_line (start -4.95 -5.07) (end -5.65 -5.07)
    (stroke (width 0.12) (type solid)) (layer "F.SilkS") (tstamp 3bc6b2c4-b14b-4f8c-a857-f3a7f50500f9))
  (fp_line (start -4.95 -5.07) (end -4.95 -5.15)
    (stroke (width 0.12) (type solid)) (layer "F.SilkS") (tstamp 5bde57eb-22ca-4fbe-8b2f-21ebcff6009e))
  (fp_line (start -4.95 5.07) (end -4.95 5.15)
    (stroke (width 0.12) (type solid)) (layer "F.SilkS") (tstamp cdd5dc8f-01b5-4c4b-b2e1-2b642a083f2b))
  (fp_line (start -4.95 5.15) (end 4.95 5.15)
    (stroke (width 0.12) (type solid)) (layer "F.SilkS") (tstamp adf082db-a7c7-4c09-9d57-27a3245943f7))
  (fp_line (start 4.95 -5.15) (end -4.95 -5.15)
    (stroke (width 0.12) (type solid)) (layer "F.SilkS") (tstamp bacf5676-e76b-4c1e-9926-038fb3ec7190))
  (fp_line (start 4.95 -5.07) (end 4.95 -5.15)
    (stroke (width 0.12) (type solid)) (layer "F.SilkS") (tstamp c2310524-5c49-46cb-b11d-073d258a074a))
  (fp_line (start 4.95 5.07) (end 4.95 5.15)
    (stroke (width 0.12) (type solid)) (layer "F.SilkS") (tstamp 36209520-eaf1-4b84-b953-647b6c5657b2))
  (fp_rect (start -8.75 -8.05) (end 8.75 8.05)
    (stroke (width 0.05) (type solid)) (fill none) (layer "F.CrtYd") (tstamp 22683aa9-77fe-4f14-99a7-c2a0fa76513d))
  (fp_line (start -4.85 -4.05) (end -4.85 5.05)
    (stroke (width 0.1) (type solid)) (layer "F.Fab") (tstamp 02817059-073b-4efc-a8d1-f8d4b8c448d5))
  (fp_line (start -4.85 5.05) (end 4.85 5.05)
    (stroke (width 0.1) (type solid)) (layer "F.Fab") (tstamp f29e5c36-941c-4e9c-8fbf-58898222ff26))
  (fp_line (start -3.85 -5.05) (end -4.85 -4.05)
    (stroke (width 0.1) (type solid)) (layer "F.Fab") (tstamp 91457f2c-1053-42f7-bcdd-d736353cdba1))
  (fp_line (start 4.85 -5.05) (end -3.85 -5.05)
    (stroke (width 0.1) (type solid)) (layer "F.Fab") (tstamp 426f9a05-c8e1-42e8-9ee6-d454e2d2b824))
  (fp_line (start 4.85 5.05) (end 4.85 -5.05)
    (stroke (width 0.1) (type solid)) (layer "F.Fab") (tstamp ccfe647f-a31b-4b15-93d7-fa09bd306880))
  (pad "1" smd roundrect (at -4.85 -4.4) (size 1.8 0.8) (layers "F.Cu" "F.Paste" "F.Mask") (roundrect_rratio 0.25) (tstamp 28b0fda7-14c2-493e-a8d9-914509f42a94))
  (pad "2" smd roundrect (at -4.85 -3.3) (size 1.8 0.8) (layers "F.Cu" "F.Paste" "F.Mask") (roundrect_rratio 0.25) (tstamp b6171342-b8ba-4de7-a3fa-7b19794fc997))
  (pad "3" smd roundrect (at -4.85 -2.2) (size 1.8 0.8) (layers "F.Cu" "F.Paste" "F.Mask") (roundrect_rratio 0.25) (tstamp 56cadc26-fb93-4362-9cde-ea2e0f7982af))
  (pad "4" smd roundrect (at -4.85 -1.1) (size 1.8 0.8) (layers "F.Cu" "F.Paste" "F.Mask") (roundrect_rratio 0.25) (tstamp 54c3040f-3a7a-4fc3-9945-9227a372023d))
  (pad "5" smd roundrect (at -4.85 0) (size 1.8 0.8) (layers "F.Cu" "F.Paste" "F.Mask") (roundrect_rratio 0.25) (tstamp c06951ff-694d-4e20-a473-962196822c7e))
  (pad "6" smd roundrect (at -4.85 1.1) (size 1.8 0.8) (layers "F.Cu" "F.Paste" "F.Mask") (roundrect_rratio 0.25) (tstamp 054d8f60-c994-4741-b85b-b3487822cbc5))
  (pad "7" smd roundrect (at -4.85 2.2) (size 1.8 0.8) (layers "F.Cu" "F.Paste" "F.Mask") (roundrect_rratio 0.25) (tstamp fd709e84-24b2-4e25-9dd0-977095c18d3e))
  (pad "8" smd roundrect (at -4.85 3.3) (size 1.8 0.8) (layers "F.Cu" "F.Paste" "F.Mask") (roundrect_rratio 0.25) (tstamp df4f242b-eed6-40c8-8fa5-2607083e5990))
  (pad "9" smd roundrect (at -4.85 4.4) (size 1.8 0.8) (layers "F.Cu" "F.Paste" "F.Mask") (roundrect_rratio 0.25) (tstamp ee5c49a9-2f6a-42ff-a290-3292987d9efd))
  (pad "10" smd roundrect (at 4.85 4.4) (size 1.8 0.8) (layers "F.Cu" "F.Paste" "F.Mask") (roundrect_rratio 0.25) (tstamp d3412b84-c82c-4362-9010-56976105a974))
  (pad "11" smd roundrect (at 4.85 3.3) (size 1.8 0.8) (layers "F.Cu" "F.Paste" "F.Mask") (roundrect_rratio 0.25) (tstamp 56e9c838-b41d-4c52-9c3c-76fc4606674c))
  (pad "12" smd roundrect (at 4.85 2.2) (size 1.8 0.8) (layers "F.Cu" "F.Paste" "F.Mask") (roundrect_rratio 0.25) (tstamp ac196f13-2e4f-402f-8e89-2cea2b248f43))
  (pad "13" smd roundrect (at 4.85 1.1) (size 1.8 0.8) (layers "F.Cu" "F.Paste" "F.Mask") (roundrect_rratio 0.25) (tstamp 69896280-310a-4cf6-8bff-91111d8bd4e8))
  (pad "14" smd roundrect (at 4.85 0) (size 1.8 0.8) (layers "F.Cu" "F.Paste" "F.Mask") (roundrect_rratio 0.25) (tstamp a10fdf3b-7b1f-4c50-b085-022ec1a162f1))
  (pad "15" smd roundrect (at 4.85 -1.1) (size 1.8 0.8) (layers "F.Cu" "F.Paste" "F.Mask") (roundrect_rratio 0.25) (tstamp b85ab687-a3e8-417a-b560-ecf5a34ffd00))
  (pad "16" smd roundrect (at 4.85 -2.2) (size 1.8 0.8) (layers "F.Cu" "F.Paste" "F.Mask") (roundrect_rratio 0.25) (tstamp 6a54b963-b932-4b64-8e2d-ece1ecfc6137))
  (pad "17" smd roundrect (at 4.85 -3.3) (size 1.8 0.8) (layers "F.Cu" "F.Paste" "F.Mask") (roundrect_rratio 0.25) (tstamp 5bde5553-e9c6-49de-a412-8f4495bd3b47))
  (pad "18" smd roundrect (at 4.85 -4.4) (size 1.8 0.8) (layers "F.Cu" "F.Paste" "F.Mask") (roundrect_rratio 0.25) (tstamp 433cd023-89d4-4be4-aa1e-47beb58a84a6))
  (model "${KICAD7_3DMODEL_DIR}/RF_GPS.3dshapes/Quectel_L76.wrl"
    (offset (xyz 0 0 0))
    (scale (xyz 1 1 1))
    (rotate (xyz 0 0 0))
  )
)
